\relax 
\@writefile{lot}{\contentsline {table}{\numberline {1}{\ignorespaces }}{1}\protected@file@percent }
\newlabel{tabla:}{{1}{1}}
\@writefile{lot}{\contentsline {table}{\numberline {2}{\ignorespaces }}{2}\protected@file@percent }
\newlabel{tabla:}{{2}{2}}
\@writefile{lot}{\contentsline {table}{\numberline {3}{\ignorespaces }}{2}\protected@file@percent }
\newlabel{tabla:}{{3}{2}}
\@writefile{lot}{\contentsline {table}{\numberline {4}{\ignorespaces }}{3}\protected@file@percent }
\newlabel{tabla:}{{4}{3}}
\@writefile{lot}{\contentsline {table}{\numberline {5}{\ignorespaces }}{3}\protected@file@percent }
\newlabel{tabla:}{{5}{3}}
\@writefile{lot}{\contentsline {table}{\numberline {6}{\ignorespaces }}{3}\protected@file@percent }
\newlabel{tabla:}{{6}{3}}
